Vivado_projfile/axi_ooo_read/axi_ooo_read.sim/sim_1/behav/xsim/tb_axi_ooo_read.vcd
$date
   Fri May  1 07:33:11 2026
$end

$version
  2025.1.0
  $dumpfile ("tb_axi_ooo_read.vcd") 
$end

$timescale
  1ps
$end

$scope module tb_axi_ooo_read $end
$var reg 1 ! ACLK $end
$var reg 1 " ARESETn $end
$var reg 4 # M_AXI_GP0_ARID [3:0] $end
$var reg 32 $ M_AXI_GP0_ARADDR [31:0] $end
$var reg 8 % M_AXI_GP0_ARLEN [7:0] $end
$var reg 3 & M_AXI_GP0_ARSIZE [2:0] $end
$var reg 2 ' M_AXI_GP0_ARBURST [1:0] $end
$var reg 1 ( M_AXI_GP0_ARVALID $end
$var wire 1 ) M_AXI_GP0_ARREADY $end
$var wire 4 * M_AXI_GP0_RID [3:0] $end
$var wire 32 + M_AXI_GP0_RDATA [31:0] $end
$var wire 2 , M_AXI_GP0_RRESP [1:0] $end
$var wire 1 - M_AXI_GP0_RLAST $end
$var wire 1 . M_AXI_GP0_RVALID $end
$var reg 1 / M_AXI_GP0_RREADY $end
$var wire 4 0 S_AXI_HP0_ARID [3:0] $end
$var wire 32 1 S_AXI_HP0_ARADDR [31:0] $end
$var wire 8 2 S_AXI_HP0_ARLEN [7:0] $end
$var wire 3 3 S_AXI_HP0_ARSIZE [2:0] $end
$var wire 2 4 S_AXI_HP0_ARBURST [1:0] $end
$var wire 1 5 S_AXI_HP0_ARVALID $end
$var reg 1 6 S_AXI_HP0_ARREADY $end
$var reg 4 7 S_AXI_HP0_RID [3:0] $end
$var reg 32 8 S_AXI_HP0_RDATA [31:0] $end
$var reg 2 9 S_AXI_HP0_RRESP [1:0] $end
$var reg 1 : S_AXI_HP0_RLAST $end
$var reg 1 ; S_AXI_HP0_RVALID $end
$var wire 1 < S_AXI_HP0_RREADY $end
$var reg 32 = expected_beats [31:0] $end
$var reg 32 > observed_beats [31:0] $end
$var reg 32 ? observed_reqs [31:0] $end
$var reg 32 @ ar_timeout_cnt [31:0] $end
$var reg 32 A r_timeout_cnt [31:0] $end
$var reg 32 B cycle_cnt [31:0] $end
$scope module dut $end
$var wire 1 C ACLK $end
$var wire 1 D ARESETn $end
$var wire 4 E M_AXI_GP0_ARID [3:0] $end
$var wire 32 F M_AXI_GP0_ARADDR [31:0] $end
$var wire 8 G M_AXI_GP0_ARLEN [7:0] $end
$var wire 3 H M_AXI_GP0_ARSIZE [2:0] $end
$var wire 2 I M_AXI_GP0_ARBURST [1:0] $end
$var wire 1 J M_AXI_GP0_ARVALID $end
$var wire 1 ) M_AXI_GP0_ARREADY $end
$var wire 4 * M_AXI_GP0_RID [3:0] $end
$var wire 32 + M_AXI_GP0_RDATA [31:0] $end
$var wire 2 , M_AXI_GP0_RRESP [1:0] $end
$var wire 1 - M_AXI_GP0_RLAST $end
$var wire 1 . M_AXI_GP0_RVALID $end
$var wire 1 K M_AXI_GP0_RREADY $end
$var wire 4 0 S_AXI_HP0_ARID [3:0] $end
$var wire 32 1 S_AXI_HP0_ARADDR [31:0] $end
$var wire 8 2 S_AXI_HP0_ARLEN [7:0] $end
$var wire 3 3 S_AXI_HP0_ARSIZE [2:0] $end
$var wire 2 4 S_AXI_HP0_ARBURST [1:0] $end
$var wire 1 5 S_AXI_HP0_ARVALID $end
$var wire 1 L S_AXI_HP0_ARREADY $end
$var wire 4 M S_AXI_HP0_RID [3:0] $end
$var wire 32 N S_AXI_HP0_RDATA [31:0] $end
$var wire 2 O S_AXI_HP0_RRESP [1:0] $end
$var wire 1 P S_AXI_HP0_RLAST $end
$var wire 1 Q S_AXI_HP0_RVALID $end
$var wire 1 < S_AXI_HP0_RREADY $end
$var wire 4 R queue_o_id [3:0] $end
$var wire 32 S queue_o_addr [31:0] $end
$var wire 8 T queue_o_len [7:0] $end
$var wire 3 U queue_o_size [2:0] $end
$var wire 2 V queue_o_burst [1:0] $end
$var wire 1 W queue_o_valid $end
$var wire 4 X sched_o_id [3:0] $end
$var wire 32 Y sched_o_addr [31:0] $end
$var wire 8 Z sched_o_len [7:0] $end
$var wire 3 [ sched_o_size [2:0] $end
$var wire 2 \ sched_o_burst [1:0] $end
$var wire 1 ] sched_o_valid $end
$var wire 1 ^ sched_o_ready $end
$scope module u_read_queue_cache $end
$var wire 4 E i_id [3:0] $end
$var wire 32 F i_addr [31:0] $end
$var wire 8 G i_len [7:0] $end
$var wire 3 H i_size [2:0] $end
$var wire 2 I i_burst [1:0] $end
$var wire 1 C ACLK $end
$var wire 1 D ARESETn $end
$var wire 1 J data_in_valid $end
$var wire 1 ^ data_out_ready $end
$var wire 4 R o_id [3:0] $end
$var wire 32 S o_addr [31:0] $end
$var wire 8 T o_len [7:0] $end
$var wire 3 U o_size [2:0] $end
$var wire 2 V o_burst [1:0] $end
$var wire 1 ) data_in_ready $end
$var wire 1 W data_out_valid $end
$var reg 4 _ cnt [3:0] $end
$var wire 1 ` data_in $end
$var wire 1 a data_out $end
$scope begin Block61_2 $end
$var reg 32 b i [31:0] $end
$upscope $end
$scope begin Block79_3 $end
$var reg 32 c i [31:0] $end
$upscope $end
$scope begin Block107_5 $end
$var reg 32 d i [31:0] $end
$upscope $end
$upscope $end
$scope module u_read_scheduler $end
$var wire 4 R i_id [3:0] $end
$var wire 32 S i_addr [31:0] $end
$var wire 8 T i_len [7:0] $end
$var wire 3 U i_size [2:0] $end
$var wire 2 V i_burst [1:0] $end
$var wire 1 W i_valid $end
$var wire 1 ^ o_ready $end
$var wire 1 C ACLK $end
$var wire 1 D ARESETn $end
$var wire 1 L i_ready $end
$var wire 4 X o_id [3:0] $end
$var wire 32 Y o_addr [31:0] $end
$var wire 8 Z o_len [7:0] $end
$var wire 3 [ o_size [2:0] $end
$var wire 2 \ o_burst [1:0] $end
$var wire 1 ] o_valid $end
$var reg 32 e last_addr [31:0] $end
$var wire 3 f current_bank [2:0] $end
$var wire 3 g min_bank_diff [2:0] $end
$var wire 4 h issue_index [3:0] $end
$var wire 1 i data_in $end
$var wire 1 j data_out $end
$var reg 1 k cache_has_empty $end
$var reg 1 l cache_has_valid $end
$var reg 4 m fill_index [3:0] $end
$var wire 4 n write_index [3:0] $end
$scope begin Block91_7 $end
$var reg 32 o j [31:0] $end
$upscope $end
$scope begin Block134_9 $end
$var reg 32 p i [31:0] $end
$upscope $end
$scope begin Block164_11 $end
$var reg 32 q i [31:0] $end
$upscope $end
$scope function min_calc $end
$upscope $end
$upscope $end
$scope module u_read_reorder_buff $end
$var wire 1 C ACLK $end
$var wire 1 D ARESETn $end
$var wire 4 M in_rid [3:0] $end
$var wire 32 N in_rdata [31:0] $end
$var wire 2 O in_rresp [1:0] $end
$var wire 1 P in_rlast $end
$var wire 1 Q in_rvalid $end
$var wire 1 < in_rready $end
$var wire 4 * out_rid [3:0] $end
$var wire 32 + out_rdata [31:0] $end
$var wire 2 , out_rresp [1:0] $end
$var wire 1 - out_rlast $end
$var wire 1 . out_rvalid $end
$var wire 1 K out_rready $end
$var wire 1 r data_in $end
$var wire 1 s data_out $end
$var reg 3 t cnt [2:0] $end
$var reg 4 u prev_out_rid [3:0] $end
$var reg 4 v at_least_rid_value [3:0] $end
$var reg 4 w final_out_rid [3:0] $end
$var reg 1 x valid $end
$scope begin Block73_13 $end
$var reg 32 y i [31:0] $end
$upscope $end
$scope begin Block81_14 $end
$var reg 32 z i [31:0] $end
$upscope $end
$scope module instantiate_fifo_cache[0].fifo_integ $end
$var wire 1 C ACLK $end
$var wire 1 D ARESETn $end
$var wire 4 { in_rid [63:60] $end
$var wire 32 | in_rdata [511:480] $end
$var wire 2 } in_rresp [31:30] $end
$var wire 1 ~ in_rlast $end
$var wire 1 !! in_rvalid $end
$var wire 1 "! in_rready $end
$var wire 4 #! out_rid [63:60] $end
$var wire 32 $! out_rdata [511:480] $end
$var wire 2 %! out_rresp [31:30] $end
$var wire 1 &! out_rlast $end
$var wire 1 '! out_rvalid $end
$var wire 1 (! out_rready $end
$var reg 3 )! rd_ptr [2:0] $end
$var reg 3 *! wr_ptr [2:0] $end
$var reg 4 +! cnt [3:0] $end
$var wire 1 ,! data_in $end
$var wire 1 -! data_out $end
$var wire 1 .! full $end
$var wire 1 /! empty $end
$scope begin Block87_17 $end
$var reg 32 0! i [31:0] $end
$upscope $end
$scope begin Block110_19 $end
$var reg 32 1! i [31:0] $end
$upscope $end
$upscope $end
$scope module instantiate_fifo_cache[1].fifo_integ $end
$var wire 1 C ACLK $end
$var wire 1 D ARESETn $end
$var wire 4 2! in_rid [59:56] $end
$var wire 32 3! in_rdata [479:448] $end
$var wire 2 4! in_rresp [29:28] $end
$var wire 1 5! in_rlast $end
$var wire 1 6! in_rvalid $end
$var wire 1 7! in_rready $end
$var wire 4 8! out_rid [59:56] $end
$var wire 32 9! out_rdata [479:448] $end
$var wire 2 :! out_rresp [29:28] $end
$var wire 1 ;! out_rlast $end
$var wire 1 <! out_rvalid $end
$var wire 1 =! out_rready $end
$var reg 3 >! rd_ptr [2:0] $end
$var reg 3 ?! wr_ptr [2:0] $end
$var reg 4 @! cnt [3:0] $end
$var wire 1 A! data_in $end
$var wire 1 B! data_out $end
$var wire 1 C! full $end
$var wire 1 D! empty $end
$scope begin Block87_17 $end
$var reg 32 E! i [31:0] $end
$upscope $end
$scope begin Block110_19 $end
$var reg 32 F! i [31:0] $end
$upscope $end
$upscope $end
$scope module instantiate_fifo_cache[2].fifo_integ $end
$var wire 1 C ACLK $end
$var wire 1 D ARESETn $end
$var wire 4 G! in_rid [55:52] $end
$var wire 32 H! in_rdata [447:416] $end
$var wire 2 I! in_rresp [27:26] $end
$var wire 1 J! in_rlast $end
$var wire 1 K! in_rvalid $end
$var wire 1 L! in_rready $end
$var wire 4 M! out_rid [55:52] $end
$var wire 32 N! out_rdata [447:416] $end
$var wire 2 O! out_rresp [27:26] $end
$var wire 1 P! out_rlast $end
$var wire 1 Q! out_rvalid $end
$var wire 1 R! out_rready $end
$var reg 3 S! rd_ptr [2:0] $end
$var reg 3 T! wr_ptr [2:0] $end
$var reg 4 U! cnt [3:0] $end
$var wire 1 V! data_in $end
$var wire 1 W! data_out $end
$var wire 1 X! full $end
$var wire 1 Y! empty $end
$scope begin Block87_17 $end
$var reg 32 Z! i [31:0] $end
$upscope $end
$scope begin Block110_19 $end
$var reg 32 [! i [31:0] $end
$upscope $end
$upscope $end
$scope module instantiate_fifo_cache[3].fifo_integ $end
$var wire 1 C ACLK $end
$var wire 1 D ARESETn $end
$var wire 4 \! in_rid [51:48] $end
$var wire 32 ]! in_rdata [415:384] $end
$var wire 2 ^! in_rresp [25:24] $end
$var wire 1 _! in_rlast $end
$var wire 1 `! in_rvalid $end
$var wire 1 a! in_rready $end
$var wire 4 b! out_rid [51:48] $end
$var wire 32 c! out_rdata [415:384] $end
$var wire 2 d! out_rresp [25:24] $end
$var wire 1 e! out_rlast $end
$var wire 1 f! out_rvalid $end
$var wire 1 g! out_rready $end
$var reg 3 h! rd_ptr [2:0] $end
$var reg 3 i! wr_ptr [2:0] $end
$var reg 4 j! cnt [3:0] $end
$var wire 1 k! data_in $end
$var wire 1 l! data_out $end
$var wire 1 m! full $end
$var wire 1 n! empty $end
$scope begin Block87_17 $end
$var reg 32 o! i [31:0] $end
$upscope $end
$scope begin Block110_19 $end
$var reg 32 p! i [31:0] $end
$upscope $end
$upscope $end
$scope module instantiate_fifo_cache[4].fifo_integ $end
$var wire 1 C ACLK $end
$var wire 1 D ARESETn $end
$var wire 4 q! in_rid [47:44] $end
$var wire 32 r! in_rdata [383:352] $end
$var wire 2 s! in_rresp [23:22] $end
$var wire 1 t! in_rlast $end
$var wire 1 u! in_rvalid $end
$var wire 1 v! in_rready $end
$var wire 4 w! out_rid [47:44] $end
$var wire 32 x! out_rdata [383:352] $end
$var wire 2 y! out_rresp [23:22] $end
$var wire 1 z! out_rlast $end
$var wire 1 {! out_rvalid $end
$var wire 1 |! out_rready $end
$var reg 3 }! rd_ptr [2:0] $end
$var reg 3 ~! wr_ptr [2:0] $end
$var reg 4 !" cnt [3:0] $end
$var wire 1 "" data_in $end
$var wire 1 #" data_out $end
$var wire 1 $" full $end
$var wire 1 %" empty $end
$scope begin Block87_17 $end
$var reg 32 &" i [31:0] $end
$upscope $end
$scope begin Block110_19 $end
$var reg 32 '" i [31:0] $end
$upscope $end
$upscope $end
$scope module instantiate_fifo_cache[5].fifo_integ $end
$var wire 1 C ACLK $end
$var wire 1 D ARESETn $end
$var wire 4 (" in_rid [43:40] $end
$var wire 32 )" in_rdata [351:320] $end
$var wire 2 *" in_rresp [21:20] $end
$var wire 1 +" in_rlast $end
$var wire 1 ," in_rvalid $end
$var wire 1 -" in_rready $end
$var wire 4 ." out_rid [43:40] $end
$var wire 32 /" out_rdata [351:320] $end
$var wire 2 0" out_rresp [21:20] $end
$var wire 1 1" out_rlast $end
$var wire 1 2" out_rvalid $end
$var wire 1 3" out_rready $end
$var reg 3 4" rd_ptr [2:0] $end
$var reg 3 5" wr_ptr [2:0] $end
$var reg 4 6" cnt [3:0] $end
$var wire 1 7" data_in $end
$var wire 1 8" data_out $end
$var wire 1 9" full $end
$var wire 1 :" empty $end
$scope begin Block87_17 $end
$var reg 32 ;" i [31:0] $end
$upscope $end
$scope begin Block110_19 $end
$var reg 32 <" i [31:0] $end
$upscope $end
$upscope $end
$scope module instantiate_fifo_cache[6].fifo_integ $end
$var wire 1 C ACLK $end
$var wire 1 D ARESETn $end
$var wire 4 =" in_rid [39:36] $end
$var wire 32 >" in_rdata [319:288] $end
$var wire 2 ?" in_rresp [19:18] $end
$var wire 1 @" in_rlast $end
$var wire 1 A" in_rvalid $end
$var wire 1 B" in_rready $end
$var wire 4 C" out_rid [39:36] $end
$var wire 32 D" out_rdata [319:288] $end
$var wire 2 E" out_rresp [19:18] $end
$var wire 1 F" out_rlast $end
$var wire 1 G" out_rvalid $end
$var wire 1 H" out_rready $end
$var reg 3 I" rd_ptr [2:0] $end
$var reg 3 J" wr_ptr [2:0] $end
$var reg 4 K" cnt [3:0] $end
$var wire 1 L" data_in $end
$var wire 1 M" data_out $end
$var wire 1 N" full $end
$var wire 1 O" empty $end
$scope begin Block87_17 $end
$var reg 32 P" i [31:0] $end
$upscope $end
$scope begin Block110_19 $end
$var reg 32 Q" i [31:0] $end
$upscope $end
$upscope $end
$scope module instantiate_fifo_cache[7].fifo_integ $end
$var wire 1 C ACLK $end
$var wire 1 D ARESETn $end
$var wire 4 R" in_rid [35:32] $end
$var wire 32 S" in_rdata [287:256] $end
$var wire 2 T" in_rresp [17:16] $end
$var wire 1 U" in_rlast $end
$var wire 1 V" in_rvalid $end
$var wire 1 W" in_rready $end
$var wire 4 X" out_rid [35:32] $end
$var wire 32 Y" out_rdata [287:256] $end
$var wire 2 Z" out_rresp [17:16] $end
$var wire 1 [" out_rlast $end
$var wire 1 \" out_rvalid $end
$var wire 1 ]" out_rready $end
$var reg 3 ^" rd_ptr [2:0] $end
$var reg 3 _" wr_ptr [2:0] $end
$var reg 4 `" cnt [3:0] $end
$var wire 1 a" data_in $end
$var wire 1 b" data_out $end
$var wire 1 c" full $end
$var wire 1 d" empty $end
$scope begin Block87_17 $end
$var reg 32 e" i [31:0] $end
$upscope $end
$scope begin Block110_19 $end
$var reg 32 f" i [31:0] $end
$upscope $end
$upscope $end
$scope module instantiate_fifo_cache[8].fifo_integ $end
$var wire 1 C ACLK $end
$var wire 1 D ARESETn $end
$var wire 4 g" in_rid [31:28] $end
$var wire 32 h" in_rdata [255:224] $end
$var wire 2 i" in_rresp [15:14] $end
$var wire 1 j" in_rlast $end
$var wire 1 k" in_rvalid $end
$var wire 1 l" in_rready $end
$var wire 4 m" out_rid [31:28] $end
$var wire 32 n" out_rdata [255:224] $end
$var wire 2 o" out_rresp [15:14] $end
$var wire 1 p" out_rlast $end
$var wire 1 q" out_rvalid $end
$var wire 1 r" out_rready $end
$var reg 3 s" rd_ptr [2:0] $end
$var reg 3 t" wr_ptr [2:0] $end
$var reg 4 u" cnt [3:0] $end
$var wire 1 v" data_in $end
$var wire 1 w" data_out $end
$var wire 1 x" full $end
$var wire 1 y" empty $end
$scope begin Block87_17 $end
$var reg 32 z" i [31:0] $end
$upscope $end
$scope begin Block110_19 $end
$var reg 32 {" i [31:0] $end
$upscope $end
$upscope $end
$scope module instantiate_fifo_cache[9].fifo_integ $end
$var wire 1 C ACLK $end
$var wire 1 D ARESETn $end
$var wire 4 |" in_rid [27:24] $end
$var wire 32 }" in_rdata [223:192] $end
$var wire 2 ~" in_rresp [13:12] $end
$var wire 1 !# in_rlast $end
$var wire 1 "# in_rvalid $end
$var wire 1 ## in_rready $end
$var wire 4 $# out_rid [27:24] $end
$var wire 32 %# out_rdata [223:192] $end
$var wire 2 &# out_rresp [13:12] $end
$var wire 1 '# out_rlast $end
$var wire 1 (# out_rvalid $end
$var wire 1 )# out_rready $end
$var reg 3 *# rd_ptr [2:0] $end
$var reg 3 +# wr_ptr [2:0] $end
$var reg 4 ,# cnt [3:0] $end
$var wire 1 -# data_in $end
$var wire 1 .# data_out $end
$var wire 1 /# full $end
$var wire 1 0# empty $end
$scope begin Block87_17 $end
$var reg 32 1# i [31:0] $end
$upscope $end
$scope begin Block110_19 $end
$var reg 32 2# i [31:0] $end
$upscope $end
$upscope $end
$scope module instantiate_fifo_cache[10].fifo_integ $end
$var wire 1 C ACLK $end
$var wire 1 D ARESETn $end
$var wire 4 3# in_rid [23:20] $end
$var wire 32 4# in_rdata [191:160] $end
$var wire 2 5# in_rresp [11:10] $end
$var wire 1 6# in_rlast $end
$var wire 1 7# in_rvalid $end
$var wire 1 8# in_rready $end
$var wire 4 9# out_rid [23:20] $end
$var wire 32 :# out_rdata [191:160] $end
$var wire 2 ;# out_rresp [11:10] $end
$var wire 1 <# out_rlast $end
$var wire 1 =# out_rvalid $end
$var wire 1 ># out_rready $end
$var reg 3 ?# rd_ptr [2:0] $end
$var reg 3 @# wr_ptr [2:0] $end
$var reg 4 A# cnt [3:0] $end
$var wire 1 B# data_in $end
$var wire 1 C# data_out $end
$var wire 1 D# full $end
$var wire 1 E# empty $end
$scope begin Block87_17 $end
$var reg 32 F# i [31:0] $end
$upscope $end
$scope begin Block110_19 $end
$var reg 32 G# i [31:0] $end
$upscope $end
$upscope $end
$scope module instantiate_fifo_cache[11].fifo_integ $end
$var wire 1 C ACLK $end
$var wire 1 D ARESETn $end
$var wire 4 H# in_rid [19:16] $end
$var wire 32 I# in_rdata [159:128] $end
$var wire 2 J# in_rresp [9:8] $end
$var wire 1 K# in_rlast $end
$var wire 1 L# in_rvalid $end
$var wire 1 M# in_rready $end
$var wire 4 N# out_rid [19:16] $end
$var wire 32 O# out_rdata [159:128] $end
$var wire 2 P# out_rresp [9:8] $end
$var wire 1 Q# out_rlast $end
$var wire 1 R# out_rvalid $end
$var wire 1 S# out_rready $end
$var reg 3 T# rd_ptr [2:0] $end
$var reg 3 U# wr_ptr [2:0] $end
$var reg 4 V# cnt [3:0] $end
$var wire 1 W# data_in $end
$var wire 1 X# data_out $end
$var wire 1 Y# full $end
$var wire 1 Z# empty $end
$scope begin Block87_17 $end
$var reg 32 [# i [31:0] $end
$upscope $end
$scope begin Block110_19 $end
$var reg 32 \# i [31:0] $end
$upscope $end
$upscope $end
$scope module instantiate_fifo_cache[12].fifo_integ $end
$var wire 1 C ACLK $end
$var wire 1 D ARESETn $end
$var wire 4 ]# in_rid [15:12] $end
$var wire 32 ^# in_rdata [127:96] $end
$var wire 2 _# in_rresp [7:6] $end
$var wire 1 `# in_rlast $end
$var wire 1 a# in_rvalid $end
$var wire 1 b# in_rready $end
$var wire 4 c# out_rid [15:12] $end
$var wire 32 d# out_rdata [127:96] $end
$var wire 2 e# out_rresp [7:6] $end
$var wire 1 f# out_rlast $end
$var wire 1 g# out_rvalid $end
$var wire 1 h# out_rready $end
$var reg 3 i# rd_ptr [2:0] $end
$var reg 3 j# wr_ptr [2:0] $end
$var reg 4 k# cnt [3:0] $end
$var wire 1 l# data_in $end
$var wire 1 m# data_out $end
$var wire 1 n# full $end
$var wire 1 o# empty $end
$scope begin Block87_17 $end
$var reg 32 p# i [31:0] $end
$upscope $end
$scope begin Block110_19 $end
$var reg 32 q# i [31:0] $end
$upscope $end
$upscope $end
$scope module instantiate_fifo_cache[13].fifo_integ $end
$var wire 1 C ACLK $end
$var wire 1 D ARESETn $end
$var wire 4 r# in_rid [11:8] $end
$var wire 32 s# in_rdata [95:64] $end
$var wire 2 t# in_rresp [5:4] $end
$var wire 1 u# in_rlast $end
$var wire 1 v# in_rvalid $end
$var wire 1 w# in_rready $end
$var wire 4 x# out_rid [11:8] $end
$var wire 32 y# out_rdata [95:64] $end
$var wire 2 z# out_rresp [5:4] $end
$var wire 1 {# out_rlast $end
$var wire 1 |# out_rvalid $end
$var wire 1 }# out_rready $end
$var reg 3 ~# rd_ptr [2:0] $end
$var reg 3 !$ wr_ptr [2:0] $end
$var reg 4 "$ cnt [3:0] $end
$var wire 1 #$ data_in $end
$var wire 1 $$ data_out $end
$var wire 1 %$ full $end
$var wire 1 &$ empty $end
$scope begin Block87_17 $end
$var reg 32 '$ i [31:0] $end
$upscope $end
$scope begin Block110_19 $end
$var reg 32 ($ i [31:0] $end
$upscope $end
$upscope $end
$scope module instantiate_fifo_cache[14].fifo_integ $end
$var wire 1 C ACLK $end
$var wire 1 D ARESETn $end
$var wire 4 )$ in_rid [7:4] $end
$var wire 32 *$ in_rdata [63:32] $end
$var wire 2 +$ in_rresp [3:2] $end
$var wire 1 ,$ in_rlast $end
$var wire 1 -$ in_rvalid $end
$var wire 1 .$ in_rready $end
$var wire 4 /$ out_rid [7:4] $end
$var wire 32 0$ out_rdata [63:32] $end
$var wire 2 1$ out_rresp [3:2] $end
$var wire 1 2$ out_rlast $end
$var wire 1 3$ out_rvalid $end
$var wire 1 4$ out_rready $end
$var reg 3 5$ rd_ptr [2:0] $end
$var reg 3 6$ wr_ptr [2:0] $end
$var reg 4 7$ cnt [3:0] $end
$var wire 1 8$ data_in $end
$var wire 1 9$ data_out $end
$var wire 1 :$ full $end
$var wire 1 ;$ empty $end
$scope begin Block87_17 $end
$var reg 32 <$ i [31:0] $end
$upscope $end
$scope begin Block110_19 $end
$var reg 32 =$ i [31:0] $end
$upscope $end
$upscope $end
$scope module instantiate_fifo_cache[15].fifo_integ $end
$var wire 1 C ACLK $end
$var wire 1 D ARESETn $end
$var wire 4 >$ in_rid [3:0] $end
$var wire 32 ?$ in_rdata [31:0] $end
$var wire 2 @$ in_rresp [1:0] $end
$var wire 1 A$ in_rlast $end
$var wire 1 B$ in_rvalid $end
$var wire 1 C$ in_rready $end
$var wire 4 D$ out_rid [3:0] $end
$var wire 32 E$ out_rdata [31:0] $end
$var wire 2 F$ out_rresp [1:0] $end
$var wire 1 G$ out_rlast $end
$var wire 1 H$ out_rvalid $end
$var wire 1 I$ out_rready $end
$var reg 3 J$ rd_ptr [2:0] $end
$var reg 3 K$ wr_ptr [2:0] $end
$var reg 4 L$ cnt [3:0] $end
$var wire 1 M$ data_in $end
$var wire 1 N$ data_out $end
$var wire 1 O$ full $end
$var wire 1 P$ empty $end
$scope begin Block87_17 $end
$var reg 32 Q$ i [31:0] $end
$upscope $end
$scope begin Block110_19 $end
$var reg 32 R$ i [31:0] $end
$upscope $end
$upscope $end
$upscope $end
$upscope $end
$scope begin ar_slave_model $end
$var reg 49 S$ req $end
$upscope $end
$scope begin r_slave_model $end
$var reg 49 T$ req $end
$upscope $end
$scope task init_signals $end
$upscope $end
$scope task apply_reset $end
$upscope $end
$scope task send_ar $end
$upscope $end
$scope task send_r_burst $end
$upscope $end
$upscope $end
$enddefinitions $end

#0
$dumpvars
0!
0!!
b0 !"
0!#
b0 !$
0"
1"!
0""
0"#
b0 "$
b0 #
b0 #!
0#"
1##
0#$
b0 $
b0 $!
0$"
b0 $#
0$$
b0 %
b0 %!
1%"
b0 %#
0%$
b10 &
0&!
b1000 &"
b0 &#
1&$
b1 '
0'!
b1000 '"
0'#
b1000 '$
0(
z(!
b0 ("
0(#
b1000 ($
1)
b0 )!
b0 )"
z)#
b0 )$
b0 *
b0 *!
b0 *"
b0 *#
b0 *$
b0 +
b0 +!
0+"
b0 +#
b0 +$
b0 ,
0,!
0,"
b0 ,#
0,$
0-
0-!
1-"
0-#
0-$
0.
0.!
b0 ."
0.#
1.$
1/
1/!
b0 /"
0/#
b0 /$
b0 0
b1000 0!
b0 0"
10#
b0 0$
b0 1
b1000 1!
01"
b1000 1#
b0 1$
b0 2
b0 2!
02"
b1000 2#
02$
b0 3
b0 3!
z3"
b0 3#
03$
b0 4
b0 4!
b0 4"
b0 4#
z4$
05
05!
b0 5"
b0 5#
b0 5$
16
06!
b0 6"
06#
b0 6$
b0 7
17!
07"
07#
b0 7$
b0 8
b0 8!
08"
18#
08$
b0 9
b0 9!
09"
b0 9#
09$
0:
b0 :!
1:"
b0 :#
0:$
0;
0;!
b1000 ;"
b0 ;#
1;$
1<
0<!
b1000 <"
0<#
b1000 <$
b0 =
z=!
b0 ="
0=#
b1000 =$
b0 >
b0 >!
b0 >"
z>#
b0 >$
b0 ?
b0 ?!
b0 ?"
b0 ?#
b0 ?$
b0 @
b0 @!
0@"
b0 @#
b0 @$
b0 A
0A!
0A"
b0 A#
0A$
b0 B
0B!
1B"
0B#
0B$
0C
0C!
b0 C"
0C#
1C$
0D
1D!
b0 D"
0D#
b0 D$
b0 E
b1000 E!
b0 E"
1E#
b0 E$
b0 F
b1000 F!
0F"
b1000 F#
b0 F$
b0 G
b0 G!
0G"
b1000 G#
0G$
b10 H
b0 H!
zH"
b0 H#
0H$
b1 I
b0 I!
b0 I"
b0 I#
zI$
0J
0J!
b0 J"
b0 J#
b0 J$
1K
0K!
b0 K"
0K#
b0 K$
1L
1L!
0L"
0L#
b0 L$
b0 M
b0 M!
0M"
1M#
0M$
b0 N
b0 N!
0N"
b0 N#
0N$
b0 O
b0 O!
1O"
b0 O#
0O$
0P
0P!
b1000 P"
b0 P#
1P$
0Q
0Q!
b1000 Q"
0Q#
b1000 Q$
b0 R
zR!
b0 R"
0R#
b1000 R$
b0 S
b0 S!
b0 S"
zS#
bx S$
b0 T
b0 T!
b0 T"
b0 T#
bx T$
b0 U
b0 U!
0U"
b0 U#
b0 V
0V!
0V"
b0 V#
0W
0W!
1W"
0W#
b0 X
0X!
b0 X"
0X#
b0 Y
1Y!
b0 Y"
0Y#
b0 Z
b1000 Z!
b0 Z"
1Z#
b0 [
b1000 [!
0["
b1000 [#
b0 \
b0 \!
0\"
b1000 \#
0]
b0 ]!
z]"
b0 ]#
1^
b0 ^!
b0 ^"
b0 ^#
b0 _
0_!
b0 _"
b0 _#
0`
0`!
b0 `"
0`#
0a
1a!
0a"
0a#
b10000 b
b0 b!
0b"
1b#
b0 c
b0 c!
0c"
b0 c#
b10000 d
b0 d!
1d"
b0 d#
b0 e
0e!
b1000 e"
b0 e#
b0 f
0f!
b1000 f"
0f#
b111 g
zg!
b0 g"
0g#
b0 h
b0 h!
b0 h"
zh#
0i
b0 i!
b0 i"
b0 i#
0j
b0 j!
0j"
b0 j#
1k
0k!
0k"
b0 k#
0l
0l!
1l"
0l#
b0 m
0m!
b0 m"
0m#
b0 n
1n!
b0 n"
0n#
b10000 o
b1000 o!
b0 o"
1o#
b10000 p
b1000 p!
0p"
b1000 p#
b10000 q
b0 q!
0q"
b1000 q#
0r
b0 r!
zr"
b0 r#
0s
b0 s!
b0 s"
b0 s#
b0 t
0t!
b0 t"
b0 t#
b0 u
0u!
b0 u"
0u#
b0 v
1v!
0v"
0v#
b0 w
b0 w!
0w"
1w#
0x
b0 x!
0x"
b0 x#
b10000 y
b0 y!
1y"
b0 y#
b0 z
0z!
b1000 z"
b0 z#
b0 {
0{!
b1000 {"
0{#
b0 |
z|!
b0 |"
0|#
b0 }
b0 }!
b0 }"
z}#
0~
b0 ~!
b0 ~"
b0 ~#
$end

#5000
1!
b1000 &"
b1000 '$
b1000 0!
b1000 1#
b1000 ;"
b1000 <$
1C
b1000 E!
b1000 F#
b1000 P"
b1000 Q$
b1000 Z!
b1000 [#
b10000 b
b1000 e"
b1000 o!
b10000 p
b1000 p#
b1000 z"

#10000
0!
0C

#15000
1!
b1000 &"
b1000 '$
b1000 0!
b1000 1#
b1000 ;"
b1000 <$
1C
b1000 E!
b1000 F#
b1000 P"
b1000 Q$
b1000 Z!
b1000 [#
b10000 b
b1000 e"
b1000 o!
b10000 p
b1000 p#
b1000 z"

#20000
0!
0C

#25000
1!
b1000 &"
b1000 '$
b1000 0!
b1000 1#
b1000 ;"
b1000 <$
1C
b1000 E!
b1000 F#
b1000 P"
b1000 Q$
b1000 Z!
b1000 [#
b10000 b
b1000 e"
b1000 o!
b10000 p
b1000 p#
b1000 z"

#30000
0!
0C

#35000
1!
b1000 &"
b1000 '$
b1000 0!
b1000 1#
b1000 ;"
b1000 <$
1C
b1000 E!
b1000 F#
b1000 P"
b1000 Q$
b1000 Z!
b1000 [#
b10000 b
b1000 e"
b1000 o!
b10000 p
b1000 p#
b1000 z"

#40000
0!
0C

#45000
1!
1"
b1000 &"
b1000 '$
b1000 0!
b1000 1#
b1000 ;"
b1000 <$
1C
1D
b1000 E!
b1000 F#
b1000 P"
b1000 Q$
b1000 Z!
b1000 [#
b10000 b
b1000 e"
b1000 o!
b10000 p
b1000 p#
b1000 z"

#50000
0!
0C

#55000
1!
b1 B
1C
b1 t

#60000
0!
0C

#65000
1!
b10 B
1C
b10 t

#70000
0!
0C

#75000
1!
b1 #
b1000000000000 $
b1 %
1(
b11 B
1C
b1 E
b1000000000000 F
b1 G
1J
1`
b11 t

#80000
0!
0C

